%YAML 1.1
%TAG !u! tag:unity3d.com,2011:
--- !u!1 &7387448004477785941
GameObject:
  m_ObjectHideFlags: 0
  m_CorrespondingSourceObject: {fileID: 0}
  m_PrefabInstance: {fileID: 0}
  m_PrefabAsset: {fileID: 0}
  serializedVersion: 6
  m_Component:
  - component: {fileID: 7206564051156436096}
  m_Layer: 0
  m_Name: Obstacle2
  m_TagString: Untagged
  m_Icon: {fileID: 0}
  m_NavMeshLayer: 0
  m_StaticEditorFlags: 0
  m_IsActive: 1
--- !u!4 &7206564051156436096
Transform:
  m_ObjectHideFlags: 0
  m_CorrespondingSourceObject: {fileID: 0}
  m_PrefabInstance: {fileID: 0}
  m_PrefabAsset: {fileID: 0}
  m_GameObject: {fileID: 7387448004477785941}
  m_LocalRotation: {x: 0, y: 0, z: 0, w: 1}
  m_LocalPosition: {x: 0, y: 0, z: 0}
  m_LocalScale: {x: 1, y: 1, z: 1}
  m_Children:
  - {fileID: 4181357105495798298}
  - {fileID: 933245426385554829}
  m_Father: {fileID: 0}
  m_RootOrder: 0
  m_LocalEulerAnglesHint: {x: 0, y: 0, z: 0}
--- !u!1001 &259316662151967966
PrefabInstance:
  m_ObjectHideFlags: 0
  serializedVersion: 2
  m_Modification:
    m_TransformParent: {fileID: 7206564051156436096}
    m_Modifications:
    - target: {fileID: 1110923339038226771, guid: c674aadd307ff2f4bab76de6388dd7b3,
        type: 3}
      propertyPath: m_LocalPosition.x
      value: 5.09
      objectReference: {fileID: 0}
    - target: {fileID: 1110923339038226771, guid: c674aadd307ff2f4bab76de6388dd7b3,
        type: 3}
      propertyPath: m_LocalPosition.y
      value: 3.51
      objectReference: {fileID: 0}
    - target: {fileID: 1110923339038226771, guid: c674aadd307ff2f4bab76de6388dd7b3,
        type: 3}
      propertyPath: m_LocalPosition.z
      value: 0
      objectReference: {fileID: 0}
    - target: {fileID: 1110923339038226771, guid: c674aadd307ff2f4bab76de6388dd7b3,
        type: 3}
      propertyPath: m_LocalRotation.x
      value: -0
      objectReference: {fileID: 0}
    - target: {fileID: 1110923339038226771, guid: c674aadd307ff2f4bab76de6388dd7b3,
        type: 3}
      propertyPath: m_LocalRotation.y
      value: -0
      objectReference: {fileID: 0}
    - target: {fileID: 1110923339038226771, guid: c674aadd307ff2f4bab76de6388dd7b3,
        type: 3}
      propertyPath: m_LocalRotation.z
      value: -0
      objectReference: {fileID: 0}
    - target: {fileID: 1110923339038226771, guid: c674aadd307ff2f4bab76de6388dd7b3,
        type: 3}
      propertyPath: m_LocalRotation.w
      value: 1
      objectReference: {fileID: 0}
    - target: {fileID: 1110923339038226771, guid: c674aadd307ff2f4bab76de6388dd7b3,
        type: 3}
      propertyPath: m_RootOrder
      value: 1
      objectReference: {fileID: 0}
    - target: {fileID: 1110923339038226771, guid: c674aadd307ff2f4bab76de6388dd7b3,
        type: 3}
      propertyPath: m_LocalEulerAnglesHint.x
      value: 0
      objectReference: {fileID: 0}
    - target: {fileID: 1110923339038226771, guid: c674aadd307ff2f4bab76de6388dd7b3,
        type: 3}
      propertyPath: m_LocalEulerAnglesHint.y
      value: 0
      objectReference: {fileID: 0}
    - target: {fileID: 1110923339038226771, guid: c674aadd307ff2f4bab76de6388dd7b3,
        type: 3}
      propertyPath: m_LocalEulerAnglesHint.z
      value: 0
      objectReference: {fileID: 0}
    - target: {fileID: 9180227088974098894, guid: c674aadd307ff2f4bab76de6388dd7b3,
        type: 3}
      propertyPath: m_Name
      value: Platform_Square
      objectReference: {fileID: 0}
    - target: {fileID: 1687453440148073601, guid: c674aadd307ff2f4bab76de6388dd7b3,
        type: 3}
      propertyPath: m_Offset.x
      value: 0.037222385
      objectReference: {fileID: 0}
    - target: {fileID: 1687453440148073601, guid: c674aadd307ff2f4bab76de6388dd7b3,
        type: 3}
      propertyPath: m_Offset.y
      value: 0
      objectReference: {fileID: 0}
    - target: {fileID: 1687453440148073601, guid: c674aadd307ff2f4bab76de6388dd7b3,
        type: 3}
      propertyPath: m_SpriteTilingProperty.newSize.x
      value: 3
      objectReference: {fileID: 0}
    - target: {fileID: 1687453440148073601, guid: c674aadd307ff2f4bab76de6388dd7b3,
        type: 3}
      propertyPath: m_SpriteTilingProperty.newSize.y
      value: 3
      objectReference: {fileID: 0}
    - target: {fileID: 1687453440148073601, guid: c674aadd307ff2f4bab76de6388dd7b3,
        type: 3}
      propertyPath: m_Size.x
      value: 1.1
      objectReference: {fileID: 0}
    - target: {fileID: 1687453440148073601, guid: c674aadd307ff2f4bab76de6388dd7b3,
        type: 3}
      propertyPath: m_Size.y
      value: 1.1
      objectReference: {fileID: 0}
    - target: {fileID: 2156925907687522613, guid: c674aadd307ff2f4bab76de6388dd7b3,
        type: 3}
      propertyPath: m_Size.x
      value: 3
      objectReference: {fileID: 0}
    - target: {fileID: 2156925907687522613, guid: c674aadd307ff2f4bab76de6388dd7b3,
        type: 3}
      propertyPath: m_Size.y
      value: 3
      objectReference: {fileID: 0}
    m_RemovedComponents: []
  m_SourcePrefab: {fileID: 100100000, guid: c674aadd307ff2f4bab76de6388dd7b3, type: 3}
--- !u!4 &933245426385554829 stripped
Transform:
  m_CorrespondingSourceObject: {fileID: 1110923339038226771, guid: c674aadd307ff2f4bab76de6388dd7b3,
    type: 3}
  m_PrefabInstance: {fileID: 259316662151967966}
  m_PrefabAsset: {fileID: 0}
--- !u!1001 &3849980398221232969
PrefabInstance:
  m_ObjectHideFlags: 0
  serializedVersion: 2
  m_Modification:
    m_TransformParent: {fileID: 7206564051156436096}
    m_Modifications:
    - target: {fileID: 1110923339038226771, guid: c674aadd307ff2f4bab76de6388dd7b3,
        type: 3}
      propertyPath: m_LocalPosition.x
      value: 0
      objectReference: {fileID: 0}
    - target: {fileID: 1110923339038226771, guid: c674aadd307ff2f4bab76de6388dd7b3,
        type: 3}
      propertyPath: m_LocalPosition.y
      value: 0.84
      objectReference: {fileID: 0}
    - target: {fileID: 1110923339038226771, guid: c674aadd307ff2f4bab76de6388dd7b3,
        type: 3}
      propertyPath: m_LocalPosition.z
      value: 0
      objectReference: {fileID: 0}
    - target: {fileID: 1110923339038226771, guid: c674aadd307ff2f4bab76de6388dd7b3,
        type: 3}
      propertyPath: m_LocalRotation.x
      value: -0
      objectReference: {fileID: 0}
    - target: {fileID: 1110923339038226771, guid: c674aadd307ff2f4bab76de6388dd7b3,
        type: 3}
      propertyPath: m_LocalRotation.y
      value: -0
      objectReference: {fileID: 0}
    - target: {fileID: 1110923339038226771, guid: c674aadd307ff2f4bab76de6388dd7b3,
        type: 3}
      propertyPath: m_LocalRotation.z
      value: -0
      objectReference: {fileID: 0}
    - target: {fileID: 1110923339038226771, guid: c674aadd307ff2f4bab76de6388dd7b3,
        type: 3}
      propertyPath: m_LocalRotation.w
      value: 1
      objectReference: {fileID: 0}
    - target: {fileID: 1110923339038226771, guid: c674aadd307ff2f4bab76de6388dd7b3,
        type: 3}
      propertyPath: m_RootOrder
      value: 0
      objectReference: {fileID: 0}
    - target: {fileID: 1110923339038226771, guid: c674aadd307ff2f4bab76de6388dd7b3,
        type: 3}
      propertyPath: m_LocalEulerAnglesHint.x
      value: 0
      objectReference: {fileID: 0}
    - target: {fileID: 1110923339038226771, guid: c674aadd307ff2f4bab76de6388dd7b3,
        type: 3}
      propertyPath: m_LocalEulerAnglesHint.y
      value: 0
      objectReference: {fileID: 0}
    - target: {fileID: 1110923339038226771, guid: c674aadd307ff2f4bab76de6388dd7b3,
        type: 3}
      propertyPath: m_LocalEulerAnglesHint.z
      value: 0
      objectReference: {fileID: 0}
    - target: {fileID: 9180227088974098894, guid: c674aadd307ff2f4bab76de6388dd7b3,
        type: 3}
      propertyPath: m_Name
      value: Platform_Square
      objectReference: {fileID: 0}
    - target: {fileID: 1687453440148073601, guid: c674aadd307ff2f4bab76de6388dd7b3,
        type: 3}
      propertyPath: m_SpriteTilingProperty.newSize.x
      value: 3
      objectReference: {fileID: 0}
    - target: {fileID: 1687453440148073601, guid: c674aadd307ff2f4bab76de6388dd7b3,
        type: 3}
      propertyPath: m_SpriteTilingProperty.newSize.y
      value: 3
      objectReference: {fileID: 0}
    - target: {fileID: 1687453440148073601, guid: c674aadd307ff2f4bab76de6388dd7b3,
        type: 3}
      propertyPath: m_Size.x
      value: 1.1
      objectReference: {fileID: 0}
    - target: {fileID: 1687453440148073601, guid: c674aadd307ff2f4bab76de6388dd7b3,
        type: 3}
      propertyPath: m_Size.y
      value: 1.1
      objectReference: {fileID: 0}
    - target: {fileID: 2156925907687522613, guid: c674aadd307ff2f4bab76de6388dd7b3,
        type: 3}
      propertyPath: m_Size.x
      value: 3
      objectReference: {fileID: 0}
    - target: {fileID: 2156925907687522613, guid: c674aadd307ff2f4bab76de6388dd7b3,
        type: 3}
      propertyPath: m_Size.y
      value: 3
      objectReference: {fileID: 0}
    m_RemovedComponents: []
  m_SourcePrefab: {fileID: 100100000, guid: c674aadd307ff2f4bab76de6388dd7b3, type: 3}
--- !u!4 &4181357105495798298 stripped
Transform:
  m_CorrespondingSourceObject: {fileID: 1110923339038226771, guid: c674aadd307ff2f4bab76de6388dd7b3,
    type: 3}
  m_PrefabInstance: {fileID: 3849980398221232969}
  m_PrefabAsset: {fileID: 0}
