%YAML 1.1
%TAG !u! tag:unity3d.com,2011:
--- !u!1 &2105124220566860977
GameObject:
  m_ObjectHideFlags: 0
  m_CorrespondingSourceObject: {fileID: 0}
  m_PrefabInstance: {fileID: 0}
  m_PrefabAsset: {fileID: 0}
  serializedVersion: 6
  m_Component:
  - component: {fileID: 2105124220566860976}
  m_Layer: 0
  m_Name: Obstacle0
  m_TagString: Untagged
  m_Icon: {fileID: 0}
  m_NavMeshLayer: 0
  m_StaticEditorFlags: 0
  m_IsActive: 1
--- !u!4 &2105124220566860976
Transform:
  m_ObjectHideFlags: 0
  m_CorrespondingSourceObject: {fileID: 0}
  m_PrefabInstance: {fileID: 0}
  m_PrefabAsset: {fileID: 0}
  m_GameObject: {fileID: 2105124220566860977}
  m_LocalRotation: {x: 0, y: 0, z: 0, w: 1}
  m_LocalPosition: {x: 0, y: 0, z: 0}
  m_LocalScale: {x: 1, y: 1, z: 1}
  m_Children:
  - {fileID: 612498542952486882}
  m_Father: {fileID: 0}
  m_RootOrder: 0
  m_LocalEulerAnglesHint: {x: 0, y: 0, z: 0}
--- !u!1001 &6672299907954907540
PrefabInstance:
  m_ObjectHideFlags: 0
  serializedVersion: 2
  m_Modification:
    m_TransformParent: {fileID: 2105124220566860976}
    m_Modifications:
    - target: {fileID: 6059819006786178678, guid: 55359c43d23ffbb478e0fc059a61b774,
        type: 3}
      propertyPath: m_LocalPosition.x
      value: 0
      objectReference: {fileID: 0}
    - target: {fileID: 6059819006786178678, guid: 55359c43d23ffbb478e0fc059a61b774,
        type: 3}
      propertyPath: m_LocalPosition.y
      value: 0.68
      objectReference: {fileID: 0}
    - target: {fileID: 6059819006786178678, guid: 55359c43d23ffbb478e0fc059a61b774,
        type: 3}
      propertyPath: m_LocalPosition.z
      value: 0
      objectReference: {fileID: 0}
    - target: {fileID: 6059819006786178678, guid: 55359c43d23ffbb478e0fc059a61b774,
        type: 3}
      propertyPath: m_LocalRotation.x
      value: -0
      objectReference: {fileID: 0}
    - target: {fileID: 6059819006786178678, guid: 55359c43d23ffbb478e0fc059a61b774,
        type: 3}
      propertyPath: m_LocalRotation.y
      value: -0
      objectReference: {fileID: 0}
    - target: {fileID: 6059819006786178678, guid: 55359c43d23ffbb478e0fc059a61b774,
        type: 3}
      propertyPath: m_LocalRotation.z
      value: -0
      objectReference: {fileID: 0}
    - target: {fileID: 6059819006786178678, guid: 55359c43d23ffbb478e0fc059a61b774,
        type: 3}
      propertyPath: m_LocalRotation.w
      value: 1
      objectReference: {fileID: 0}
    - target: {fileID: 6059819006786178678, guid: 55359c43d23ffbb478e0fc059a61b774,
        type: 3}
      propertyPath: m_RootOrder
      value: 0
      objectReference: {fileID: 0}
    - target: {fileID: 6059819006786178678, guid: 55359c43d23ffbb478e0fc059a61b774,
        type: 3}
      propertyPath: m_LocalEulerAnglesHint.x
      value: 0
      objectReference: {fileID: 0}
    - target: {fileID: 6059819006786178678, guid: 55359c43d23ffbb478e0fc059a61b774,
        type: 3}
      propertyPath: m_LocalEulerAnglesHint.y
      value: 0
      objectReference: {fileID: 0}
    - target: {fileID: 6059819006786178678, guid: 55359c43d23ffbb478e0fc059a61b774,
        type: 3}
      propertyPath: m_LocalEulerAnglesHint.z
      value: 0
      objectReference: {fileID: 0}
    - target: {fileID: 6059819006786178681, guid: 55359c43d23ffbb478e0fc059a61b774,
        type: 3}
      propertyPath: m_Name
      value: Obstacle_Square
      objectReference: {fileID: 0}
    - target: {fileID: 6059819006786178676, guid: 55359c43d23ffbb478e0fc059a61b774,
        type: 3}
      propertyPath: m_Offset.x
      value: 0
      objectReference: {fileID: 0}
    - target: {fileID: 6059819006786178676, guid: 55359c43d23ffbb478e0fc059a61b774,
        type: 3}
      propertyPath: m_Offset.y
      value: 0
      objectReference: {fileID: 0}
    - target: {fileID: 6059819006786178676, guid: 55359c43d23ffbb478e0fc059a61b774,
        type: 3}
      propertyPath: m_SpriteTilingProperty.newSize.x
      value: 2
      objectReference: {fileID: 0}
    - target: {fileID: 6059819006786178676, guid: 55359c43d23ffbb478e0fc059a61b774,
        type: 3}
      propertyPath: m_SpriteTilingProperty.newSize.y
      value: 2
      objectReference: {fileID: 0}
    - target: {fileID: 6059819006786178676, guid: 55359c43d23ffbb478e0fc059a61b774,
        type: 3}
      propertyPath: m_Size.x
      value: 0.8
      objectReference: {fileID: 0}
    - target: {fileID: 6059819006786178676, guid: 55359c43d23ffbb478e0fc059a61b774,
        type: 3}
      propertyPath: m_Size.y
      value: 0.8
      objectReference: {fileID: 0}
    - target: {fileID: 6059819006786178679, guid: 55359c43d23ffbb478e0fc059a61b774,
        type: 3}
      propertyPath: m_Size.x
      value: 2
      objectReference: {fileID: 0}
    - target: {fileID: 6059819006786178679, guid: 55359c43d23ffbb478e0fc059a61b774,
        type: 3}
      propertyPath: m_Size.y
      value: 2
      objectReference: {fileID: 0}
    m_RemovedComponents: []
  m_SourcePrefab: {fileID: 100100000, guid: 55359c43d23ffbb478e0fc059a61b774, type: 3}
--- !u!4 &612498542952486882 stripped
Transform:
  m_CorrespondingSourceObject: {fileID: 6059819006786178678, guid: 55359c43d23ffbb478e0fc059a61b774,
    type: 3}
  m_PrefabInstance: {fileID: 6672299907954907540}
  m_PrefabAsset: {fileID: 0}
